…
Wrangling!

Using all 6 core dplyr functions

Grabbing all of the females and sorting them based on Power and Intelligence

character %>% filter(Gender == "Female") %>% arrange(desc(Power), 
    desc(Intelligence)) %>% select(Name, Gender, Power, Intelligence)

## # A tibble: 116 x 4
##    Name         Gender Power Intelligence
##    <fct>        <fct>  <int>        <int>
##  1 Jean Grey    Female   100          100
##  2 Phoenix      Female   100          100
##  3 Thor Girl    Female   100           75
##  4 Zatanna      Female   100           75
##  5 Marvel Girl  Female   100           63
##  6 Miss Martian Female   100           63
##  7 Firebird     Female    90           38
##  8 Hope Summers Female    89           63
##  9 Storm        Female    88           75
## 10 Supergirl    Female    85           94
## # … with 106 more rows

With this, I wanted to see which Female Marvel Characters had the highest intelligence and Power. From this, it can be seen that Jean Grey and Phoenix have the higher power and intelligence. Jean Grey and Phoenix are actually the same people (Phoenix is Jean Grey’s alias). Based on the movies and comic books I have read, I can definitely see Jean Grey having the most power out of all the Marvel females.

Creating a new column BMI and then classifying their BMI

character <- character %>% mutate(BMI = Weight/((Height/100)^2))
character %>% select(Name, Height, Weight, BMI) %>% arrange(BMI)

## # A tibble: 409 x 4
##    Name          Height Weight     BMI
##    <fct>          <dbl>  <int>   <dbl>
##  1 Groot            701      4  0.0814
##  2 Fin Fang Foom    975     18  0.189 
##  3 Galactus         876     16  0.209 
##  4 Longshot         188     36 10.2   
##  5 Cloak            226     70 13.7   
##  6 Snowbird         178     49 15.5   
##  7 Feral            175     50 16.3   
##  8 Venom II         175     50 16.3   
##  9 Binary           180     54 16.7   
## 10 Warbird          180     54 16.7   
## # … with 399 more rows

character <- character %>% mutate(BMI_class = case_when(BMI < 
    18.5 ~ "Underweight", BMI < 24.9 ~ "Normal", BMI < 29.9 ~ 
    "Overweight", BMI >= 30 ~ "Obese"))

character %>% select(Name, Height, Weight, BMI_class)

## # A tibble: 409 x 4
##    Name              Height Weight BMI_class  
##    <fct>              <dbl>  <int> <chr>      
##  1 A-Bomb               203    441 Obese      
##  2 Abe Sapien           191     65 Underweight
##  3 Abin Sur             185     90 Overweight 
##  4 Abomination          203    441 Obese      
##  5 Adam Strange         185     88 Overweight 
##  6 Agent Bob            178     81 Overweight 
##  7 Agent Zero           191    104 Overweight 
##  8 Air-Walker           188    108 Obese      
##  9 Alan Scott           180     90 Overweight 
## 10 Alfred Pennyworth    178     72 Normal     
## # … with 399 more rows
…
I am going to group by Race and determine the proportion of the group that is good

race_good <- character %>% group_by(Race) %>% summarise(proportion_good = mean(Alignment == 
    "good"), count = n())

race_good

## # A tibble: 40 x 3
##    Race       proportion_good count
##    <fct>                <dbl> <int>
##  1 -                    0.701   164
##  2 Alien                0.4       5
##  3 Amazon               1         2
##  4 Android              0.333     6
##  5 Animal               1         1
##  6 Asgardian            0.75      4
##  7 Atlantean            0.8       5
##  8 Bizarro              0         1
##  9 Bolovaxian           1         1
## 10 Clone                1         1
## # … with 30 more rows
…
